 6960  git checkout main
 6961  git pull
 6962  git switch --create homework3
 6963  ls
 6964  cd class3_homework
 6965  vim 492975.txt
 6966  git add 492975.txt
 6967  git status
 6968  git commit -m "Add homework 3 file"
 6969  git push --set-upstream origin
 6970  git push --set-upstream origin homework3

